{
  "project_info": {
    "project_number": "36583824388",
    "firebase_url": "https://simov-tracking.firebaseio.com",
    "project_id": "simov-tracking",
    "storage_bucket": "simov-tracking.appspot.com"
  },
  "client": [
    {
      "client_info": {
        "mobilesdk_app_id": "1:36583824388:android:d3b1ad156a06aeb1",
        "android_client_info": {
          "package_name": "simov.isep.pt.simovchildapp"
        }
      },
      "oauth_client": [
        {
          "client_id": "36583824388-2reqgr8ni5kggpjn0cejoptaqr4p7tsj.apps.googleusercontent.com",
          "client_type": 1,
          "android_info": {
            "package_name": "simov.isep.pt.simovchildapp",
            "certificate_hash": "fca6ae0daafe9dca065058d9428afa930e2f9b38"
          }
        },
        {
          "client_id": "36583824388-rkh3ud4dpemvrsmel052lrsj0l3sn9e8.apps.googleusercontent.com",
          "client_type": 3
        }
      ],
      "api_key": [
        {
          "current_key": "AIzaSyCLc3wzA2edi1BKZZ-lPEL0qS_j_d8MqIY"
        }
      ],
      "services": {
        "analytics_service": {
          "status": 1
        },
        "appinvite_service": {
          "status": 2,
          "other_platform_oauth_client": [
            {
              "client_id": "36583824388-rkh3ud4dpemvrsmel052lrsj0l3sn9e8.apps.googleusercontent.com",
              "client_type": 3
            }
          ]
        },
        "ads_service": {
          "status": 2
        }
      }
    },
    {
      "client_info": {
        "mobilesdk_app_id": "1:36583824388:android:ce4e17eadfd19085",
        "android_client_info": {
          "package_name": "pt.simov.trackyourkids"
        }
      },
      "oauth_client": [
        {
          "client_id": "36583824388-rkh3ud4dpemvrsmel052lrsj0l3sn9e8.apps.googleusercontent.com",
          "client_type": 3
        }
      ],
      "api_key": [
        {
          "current_key": "AIzaSyCLc3wzA2edi1BKZZ-lPEL0qS_j_d8MqIY"
        }
      ],
      "services": {
        "analytics_service": {
          "status": 1
        },
        "appinvite_service": {
          "status": 1,
          "other_platform_oauth_client": []
        },
        "ads_service": {
          "status": 2
        }
      }
    }
  ],
  "configuration_version": "1"
}